Traffic Predictions
…
Interesting way to show stats https://cran.r-project.org/web/packages/broom/vignettes/broom.html

## # A tibble: 5 x 5
##   term                                estimate std.error statistic  p.value
##   <chr>                                  <dbl>     <dbl>     <dbl>    <dbl>
## 1 (Intercept)                         1.27e+ 5  1.19e+ 4    10.7   6.01e-27
## 2 store_and_fwd_flagY                 3.99e+ 1  2.14e+ 2     0.187 8.52e- 1
## 3 pickup_datetime:dropoff_datetime    1.13e-15  1.20e-15     0.946 3.44e- 1
## 4 pickup_latitude:pickup_longitude    4.68e+ 1  4.43e+ 0    10.6   3.99e-26
## 5 dropoff_latitude:dropoff_longitude -4.08e+ 0  4.63e+ 0    -0.880 3.79e- 1

## # A tibble: 291,729 x 15
##    trip_duration pickup_datetime     dropoff_datetime    pickup_latitude
##            <int> <dttm>              <dttm>                        <dbl>
##  1          1736 2016-05-07 09:08:05 2016-05-07 09:37:01            40.6
##  2           677 2016-06-05 21:06:51 2016-06-05 21:18:08            40.7
##  3           546 2016-03-25 04:08:02 2016-03-25 04:17:08            40.7
##  4           683 2016-02-16 14:38:26 2016-02-16 14:49:49            40.7
##  5           280 2016-04-18 00:02:51 2016-04-18 00:07:31            40.7
##  6           284 2016-03-11 06:49:30 2016-03-11 06:54:14            40.7
##  7          1602 2016-02-19 22:40:23 2016-02-19 23:07:05            40.8
##  8           498 2016-05-14 22:20:32 2016-05-14 22:28:50            40.7
##  9           607 2016-06-10 12:20:01 2016-06-10 12:30:08            40.8
## 10           909 2016-05-04 22:15:21 2016-05-04 22:30:30            40.8
## # ... with 291,719 more rows, and 11 more variables: pickup_longitude <dbl>,
## #   dropoff_latitude <dbl>, dropoff_longitude <dbl>, store_and_fwd_flag <chr>,
## #   .fitted <dbl>, .se.fit <dbl>, .resid <dbl>, .hat <dbl>, .sigma <dbl>,
## #   .cooksd <dbl>, .std.resid <dbl>
…
